<svg width="329" height="311" viewBox="0 0 329 311" fill="none" xmlns="http://www.w3.org/2000/svg">
<g opacity="0.04" clip-path="url(#clip0_3_68)">
<path opacity="0.08" d="M341.821 8.25998L56.083 34.5681C29.4599 37.0193 9.86447 60.5905 12.3155 87.2158L38.6214 372.977C41.0724 399.603 64.6417 419.2 91.2649 416.748L377.003 390.44C403.626 387.989 423.222 364.418 420.771 337.793L394.465 52.0311C392.014 25.4058 368.444 5.80877 341.821 8.25998Z" fill="black"/>
<path d="M329.716 0.205017L43.9778 26.5131C17.3546 28.9643 -2.24075 52.5355 0.210256 79.1609L26.5162 364.922C28.9672 391.548 52.5365 411.145 79.1596 408.693L364.898 382.385C391.521 379.934 411.116 356.363 408.665 329.738L382.359 43.9761C379.908 17.3508 356.339 -2.24619 329.716 0.205017Z" fill="url(#paint0_linear_3_68)"/>
<g opacity="0.16">
<path opacity="0.16" d="M153.377 164.968L134.255 170.213L164.188 252.758L169.675 272.97L170.603 272.89L173.104 251.911L197.066 140.802L221.876 138.502L265.888 243.317L272.867 265.789L273.795 265.708L276.256 242.389L289.327 155.891L269.237 154.277L267.421 134.347L332.088 128.376L333.904 148.306L319.34 151.856L290.093 303.471L265.162 305.77L222.683 205.393L213.001 177.475L212.073 177.717L208.08 206.725L185.287 313.113L160.356 315.413L103.919 171.666L88.7908 170.859L86.9755 150.929L151.642 144.958L153.458 164.888L153.377 164.968Z" fill="black"/>
</g>
<path d="M141.275 152.865L122.153 158.11L152.086 240.655L157.572 260.867L158.5 260.786L161.001 239.807L184.964 128.699L209.774 126.399L253.786 231.214L260.765 253.686L261.693 253.605L264.154 230.286L277.224 143.788L257.134 142.174L255.319 122.244L319.986 116.273L321.801 136.203L307.238 139.753L277.991 291.367L253.06 293.667L210.581 193.29L200.899 165.372L199.971 165.614L195.977 194.622L173.184 301.01L148.254 303.309L91.8164 159.562L76.6885 158.755L74.8731 138.825L139.54 132.854L141.355 152.784L141.275 152.865Z" fill="white"/>
</g>
<defs>
<linearGradient id="paint0_linear_3_68" x1="11.5917" y1="59.2785" x2="397.679" y2="349.889" gradientUnits="userSpaceOnUse">
<stop stop-color="#37B780"/>
<stop offset="1" stop-color="#379696"/>
</linearGradient>
<clipPath id="clip0_3_68">
<rect width="421" height="417" fill="white"/>
</clipPath>
</defs>
</svg>
