<svg width="63" height="61" viewBox="0 0 63 61" fill="none" xmlns="http://www.w3.org/2000/svg">
<path opacity="0.08" d="M49.8486 1.20829L8.17873 5.05671C4.2962 5.41528 1.43856 8.86335 1.79599 12.7582L5.63226 54.5602C5.98969 58.455 9.42686 61.3218 13.3094 60.9632L54.9793 57.1148C58.8618 56.7562 61.7195 53.3081 61.362 49.4133L57.5258 7.61126C57.1683 3.71643 53.7312 0.849719 49.8486 1.20829Z" fill="black"/>
<path d="M48.0833 0.029975L6.41339 3.8784C2.53087 4.23697 -0.326779 7.68504 0.0306583 11.5799L3.86692 53.3819C4.22436 57.2767 7.66153 60.1434 11.5441 59.7849L53.214 55.9364C57.0965 55.5779 59.9541 52.1298 59.5967 48.235L55.7604 6.43295C55.403 2.53811 51.9658 -0.328596 48.0833 0.029975Z" fill="url(#paint0_linear_2_417)"/>
<g opacity="0.16">
<path opacity="0.16" d="M22.3674 24.132L19.5788 24.8993L23.944 36.9742L24.7441 39.9309L24.8794 39.9191L25.2442 36.8502L28.7387 20.5969L32.3568 20.2605L38.7752 35.5932L39.793 38.8804L39.9283 38.8686L40.2871 35.4574L42.1932 22.8042L39.2635 22.5681L38.9987 19.6527L48.4293 18.7792L48.694 21.6946L46.5702 22.214L42.305 44.3926L38.6693 44.729L32.4744 30.0456L31.0625 25.9616L30.9272 25.997L30.3448 30.2403L27.0208 45.8031L23.3851 46.1395L15.1547 25.1117L12.9486 24.9937L12.6839 22.0783L22.1144 21.2048L22.3791 24.1202L22.3674 24.132Z" fill="black"/>
</g>
<path d="M20.6024 22.3615L17.8139 23.1288L22.1791 35.2036L22.9792 38.1604L23.1145 38.1486L23.4793 35.0797L26.9738 18.8264L30.5919 18.49L37.0103 33.8226L38.028 37.1099L38.1633 37.0981L38.5222 33.6869L40.4283 21.0337L37.4986 20.7976L37.2338 17.8821L46.6644 17.0087L46.9291 19.9241L44.8053 20.4435L40.5401 42.6221L36.9044 42.9585L30.7095 28.275L29.2976 24.1911L29.1623 24.2265L28.5799 28.4698L25.2559 44.0326L21.6202 44.369L13.3898 23.3412L11.1837 23.2232L10.9189 20.3077L20.3495 19.4343L20.6142 22.3497L20.6024 22.3615Z" fill="white"/>
<defs>
<linearGradient id="paint0_linear_2_417" x1="1.69044" y1="8.67142" x2="58.12" y2="51.0156" gradientUnits="userSpaceOnUse">
<stop stop-color="#37B780"/>
<stop offset="1" stop-color="#379696"/>
</linearGradient>
</defs>
</svg>
